++========================================
||
||   Package:  ./qcomicbook/pkg/14.0/qcomicbook-0.9.0-i486-2alien.tgz
||
++========================================
drwxr-xr-x root/root         0 2013-01-01 21:11 ./
drwxr-xr-x root/root         0 2013-01-01 21:11 install/
-rw-r--r-- root/root      1015 2013-01-01 21:11 install/slack-desc
-rw-r--r-- root/root         7 2013-01-01 21:11 install/slack-required
-rw-r--r-- root/root       316 2013-01-01 21:11 install/doinst.sh
drwxr-xr-x root/root         0 2013-01-01 21:11 usr/
drwxr-xr-x root/root         0 2013-01-01 21:11 usr/man/
drwxr-xr-x root/root         0 2013-01-01 21:11 usr/man/man1/
-rw-r--r-- root/root      3247 2012-05-30 22:32 usr/man/man1/qcomicbook.1.gz
drwxr-xr-x root/root         0 2013-01-01 21:11 usr/doc/
drwxr-xr-x root/root         0 2013-01-01 21:11 usr/doc/qcomicbook-0.9.0/
-rw-r--r-- root/root     15207 2012-05-30 22:32 usr/doc/qcomicbook-0.9.0/ChangeLog
-rw-r--r-- root/root      1006 2012-05-30 22:32 usr/doc/qcomicbook-0.9.0/README-translations
-rw-r--r-- root/root      7564 2013-01-01 21:11 usr/doc/qcomicbook-0.9.0/qcomicbook.SlackBuild
-rw-r--r-- root/root         0 2012-05-30 22:32 usr/doc/qcomicbook-0.9.0/NEWS
-rw-r--r-- root/root       472 2012-05-30 22:32 usr/doc/qcomicbook-0.9.0/TODO
-rw-r--r-- root/root      1129 2012-05-30 22:32 usr/doc/qcomicbook-0.9.0/THANKS
-rw-r--r-- root/root        37 2012-05-30 22:32 usr/doc/qcomicbook-0.9.0/AUTHORS
-rw-r--r-- root/root     17992 2012-05-30 22:32 usr/doc/qcomicbook-0.9.0/COPYING
-rw-r--r-- root/root      2678 2012-05-30 22:32 usr/doc/qcomicbook-0.9.0/README
drwxr-xr-x root/root         0 2013-01-01 21:11 usr/bin/
-rwxr-xr-x root/root   1139696 2013-01-01 21:11 usr/bin/qcomicbook
drwxr-xr-x root/root         0 2013-01-01 21:11 usr/share/
drwxr-xr-x root/root         0 2013-01-01 21:11 usr/share/applications/
-rw-r--r-- root/root      1101 2012-05-30 22:32 usr/share/applications/qcomicbook.desktop
drwxr-xr-x root/root         0 2013-01-01 21:11 usr/share/pixmaps/
-rw-r--r-- root/root      2402 2012-05-30 22:32 usr/share/pixmaps/qcomicbook.png
drwxr-xr-x root/root         0 2013-01-01 21:11 usr/share/qcomicbook/
drwxr-xr-x root/root         0 2013-01-01 21:11 usr/share/qcomicbook/i18n/
-rw-r--r-- root/root     20683 2013-01-01 21:09 usr/share/qcomicbook/i18n/qcomicbook_pt_BR.qm
-rw-r--r-- root/root     19867 2013-01-01 21:09 usr/share/qcomicbook/i18n/qcomicbook_fi_FI.qm
-rw-r--r-- root/root     19803 2013-01-01 21:09 usr/share/qcomicbook/i18n/qcomicbook_ru_RU.qm
-rw-r--r-- root/root     16182 2013-01-01 21:09 usr/share/qcomicbook/i18n/qcomicbook_ko_KR.qm
-rw-r--r-- root/root     20427 2013-01-01 21:09 usr/share/qcomicbook/i18n/qcomicbook_fr_CA.qm
-rw-r--r-- root/root     20180 2013-01-01 21:09 usr/share/qcomicbook/i18n/qcomicbook_uk_UA.qm
-rw-r--r-- root/root     19782 2013-01-01 21:09 usr/share/qcomicbook/i18n/qcomicbook_nl_NL.qm
-rw-r--r-- root/root     14751 2013-01-01 21:09 usr/share/qcomicbook/i18n/qcomicbook_zh_CN.qm
-rw-r--r-- root/root     21089 2013-01-01 21:09 usr/share/qcomicbook/i18n/qcomicbook_es_ES.qm
-rw-r--r-- root/root     19352 2013-01-01 21:09 usr/share/qcomicbook/i18n/qcomicbook_pl_PL.qm
-rw-r--r-- root/root     20379 2013-01-01 21:09 usr/share/qcomicbook/i18n/qcomicbook_fr_FR.qm
-rw-r--r-- root/root     20281 2013-01-01 21:09 usr/share/qcomicbook/i18n/qcomicbook_cs_CZ.qm
-rw-r--r-- root/root     20543 2013-01-01 21:09 usr/share/qcomicbook/i18n/qcomicbook_it_IT.qm
-rw-r--r-- root/root     20699 2013-01-01 21:09 usr/share/qcomicbook/i18n/qcomicbook_de_DE.qm
-rw-r--r-- root/root        23 2013-01-01 21:09 usr/share/qcomicbook/i18n/qcomicbook_en_EN.qm


